Is 6813 Spring 2026
…
3.2 Filter full dataset
to only Mx leads

mx_data <- data_model %>% 
  filter(solution_rollup == "Mx")

Score all Mx leads using the final model

mx_scored <- predict(final_fit, mx_data, type = "prob") %>%
  bind_cols(mx_data)
mx_scored

## # A tibble: 4,081 × 28
##    .pred_yes .pred_no acct_primary_site_function     acct_manufacturing_model   
##        <dbl>    <dbl> <chr>                          <chr>                      
##  1   0.351      0.649 Food and beverage              Consumer Packaged Goods    
##  2   0.260      0.740 Surgical instruments           In-House                   
##  3   0.0725     0.927 In-vitro diagnostic (IVD) kits In-House                   
##  4   0.0881     0.912 Not Enough Info Found          Original Equipment Manufac…
##  5   0.0234     0.977 Implantable devices            In-House                   
##  6   0.0219     0.978 Non-manufacturing organization Services / Consulting      
##  7   0.0413     0.959 Oral solid dosage (OSD)        CDMO                       
##  8   0.0186     0.981 Implantable devices            In-House                   
##  9   0.00520    0.995 Implantable devices            In-House                   
## 10   0.571      0.429 Animal Health                  In-House                   
## # ℹ 4,071 more rows
## # ℹ 24 more variables: acct_target_industry <chr>, contact_lead_title <chr>,
## #   qal_id <chr>, contact_lead_id <chr>, next_stage_c <chr>, priority <chr>,
## #   acct_territory_rollup <chr>, acct_tier_rollup <chr>, solution <chr>,
## #   solution_rollup <chr>, last_tactic_campaign_channel <chr>,
## #   qal_cohort_date <date>, title_missing <chr>, progressed <fct>,
## #   cohort_year <dbl>, cohort_month <dbl>, cohort_day <int>, …

3.3 Rank Mx leads by
predicted probability

mx_scored <- mx_scored %>%
  arrange(desc(.pred_yes)) %>%
  mutate(rank_mx = row_number())
mx_scored

## # A tibble: 4,081 × 29
##    .pred_yes .pred_no acct_primary_site_function   acct_manufacturing_model     
##        <dbl>    <dbl> <chr>                        <chr>                        
##  1     0.767    0.233 Diagnostic Equipment         Original Equipment Manufactu…
##  2     0.745    0.255 Wearable health monitors     In-House                     
##  3     0.743    0.257 Sterile injectables          CDMO                         
##  4     0.739    0.261 Tissue products              CMO                          
##  5     0.727    0.273 Nutraceutical manufacturing  CDMO                         
##  6     0.724    0.276 Medical cannabis formulation In-House                     
##  7     0.717    0.283 Sterile injectables          CMO                          
##  8     0.713    0.287 Not Enough Info Found        In-House                     
##  9     0.711    0.289 Endoscope reprocessing       In-House                     
## 10     0.701    0.299 Not Enough Info Found        503A                         
## # ℹ 4,071 more rows
## # ℹ 25 more variables: acct_target_industry <chr>, contact_lead_title <chr>,
## #   qal_id <chr>, contact_lead_id <chr>, next_stage_c <chr>, priority <chr>,
## #   acct_territory_rollup <chr>, acct_tier_rollup <chr>, solution <chr>,
## #   solution_rollup <chr>, last_tactic_campaign_channel <chr>,
## #   qal_cohort_date <date>, title_missing <chr>, progressed <fct>,
## #   cohort_year <dbl>, cohort_month <dbl>, cohort_day <int>, …
…
baseline_mx_conversion <- mean(mx_data$progressed == "yes")
baseline_mx_conversion

## [1] 0.1296251

3.5 top 10 percentile Mx
leads

top_10_mx <- mx_scored %>%
  slice(1:floor(0.10 * n()))
top_10_mx

## # A tibble: 408 × 29
##    .pred_yes .pred_no acct_primary_site_function   acct_manufacturing_model     
##        <dbl>    <dbl> <chr>                        <chr>                        
##  1     0.767    0.233 Diagnostic Equipment         Original Equipment Manufactu…
##  2     0.745    0.255 Wearable health monitors     In-House                     
##  3     0.743    0.257 Sterile injectables          CDMO                         
##  4     0.739    0.261 Tissue products              CMO                          
##  5     0.727    0.273 Nutraceutical manufacturing  CDMO                         
##  6     0.724    0.276 Medical cannabis formulation In-House                     
##  7     0.717    0.283 Sterile injectables          CMO                          
##  8     0.713    0.287 Not Enough Info Found        In-House                     
##  9     0.711    0.289 Endoscope reprocessing       In-House                     
## 10     0.701    0.299 Not Enough Info Found        503A                         
## # ℹ 398 more rows
## # ℹ 25 more variables: acct_target_industry <chr>, contact_lead_title <chr>,
## #   qal_id <chr>, contact_lead_id <chr>, next_stage_c <chr>, priority <chr>,
## #   acct_territory_rollup <chr>, acct_tier_rollup <chr>, solution <chr>,
## #   solution_rollup <chr>, last_tactic_campaign_channel <chr>,
## #   qal_cohort_date <date>, title_missing <chr>, progressed <fct>,
## #   cohort_year <dbl>, cohort_month <dbl>, cohort_day <int>, …
…
## The codes and the plot for conversion rate vs every percentile of Mx
in the dataset.

3.7 Step 1 — Filter Leads
to Mx and score

mx_scored <- predict(final_fit, mx_data, type = "prob") %>%
  bind_cols(mx_data) %>%
  arrange(desc(.pred_yes)) %>%
  mutate(rank = row_number())
mx_scored

## # A tibble: 4,081 × 29
##    .pred_yes .pred_no acct_primary_site_function   acct_manufacturing_model     
##        <dbl>    <dbl> <chr>                        <chr>                        
##  1     0.767    0.233 Diagnostic Equipment         Original Equipment Manufactu…
##  2     0.745    0.255 Wearable health monitors     In-House                     
##  3     0.743    0.257 Sterile injectables          CDMO                         
##  4     0.739    0.261 Tissue products              CMO                          
##  5     0.727    0.273 Nutraceutical manufacturing  CDMO                         
##  6     0.724    0.276 Medical cannabis formulation In-House                     
##  7     0.717    0.283 Sterile injectables          CMO                          
##  8     0.713    0.287 Not Enough Info Found        In-House                     
##  9     0.711    0.289 Endoscope reprocessing       In-House                     
## 10     0.701    0.299 Not Enough Info Found        503A                         
## # ℹ 4,071 more rows
## # ℹ 25 more variables: acct_target_industry <chr>, contact_lead_title <chr>,
## #   qal_id <chr>, contact_lead_id <chr>, next_stage_c <chr>, priority <chr>,
## #   acct_territory_rollup <chr>, acct_tier_rollup <chr>, solution <chr>,
## #   solution_rollup <chr>, last_tactic_campaign_channel <chr>,
## #   qal_cohort_date <date>, title_missing <chr>, progressed <fct>,
## #   cohort_year <dbl>, cohort_month <dbl>, cohort_day <int>, …
…
percentiles <- seq(0.01, 1, by = 0.01)

mx_curve <- map_df(percentiles, function(p) {
  cutoff <- floor(nrow(mx_scored) * p)
  
  tibble(
    percentile = p * 100,
    conversion_rate = mean(mx_scored$progressed[1:cutoff] == "yes")
  )
})

mx_curve

## # A tibble: 100 × 2
##    percentile conversion_rate
##         <dbl>           <dbl>
##  1          1           0.95 
##  2          2           0.951
##  3          3           0.918
##  4          4           0.896
##  5          5           0.868
##  6          6           0.848
##  7          7           0.814
##  8          8           0.791
##  9          9           0.771
## 10         10           0.752
## # ℹ 90 more rows
…
mx_curve_detailed

## # A tibble: 206,041 × 6
##    percentile conversion_rate progressed .pred_yes .pred_no mx_prob
##         <dbl>           <dbl> <fct>          <dbl>    <dbl>   <dbl>
##  1          1            0.95 yes            0.767    0.233   0.767
##  2          1            0.95 yes            0.745    0.255   0.745
##  3          1            0.95 yes            0.743    0.257   0.743
##  4          1            0.95 yes            0.739    0.261   0.739
##  5          1            0.95 yes            0.727    0.273   0.727
##  6          1            0.95 yes            0.724    0.276   0.724
##  7          1            0.95 yes            0.717    0.283   0.717
##  8          1            0.95 yes            0.713    0.287   0.713
##  9          1            0.95 yes            0.711    0.289   0.711
## 10          1            0.95 yes            0.701    0.299   0.701
## # ℹ 206,031 more rows
…
Objective: maximize total conversions

mx_curve <- mx_curve %>%
  arrange(percentile) %>%
  mutate(
    incremental_converted = n_converted - lag(n_converted, default = 0),
    cum_conversions = cumsum(incremental_converted)
  )

mx_curve %>%
  mutate(cum_conversions = cumsum(n_converted))

## # A tibble: 100 × 6
##    percentile n_total n_converted conversion_rate incremental_converted
##         <dbl>   <dbl>       <int>           <dbl>                 <int>
##  1          1      40          38           0.95                     38
##  2          2      81          77           0.951                    39
##  3          3     122         112           0.918                    35
##  4          4     163         146           0.896                    34
##  5          5     204         177           0.868                    31
##  6          6     244         207           0.848                    30
##  7          7     285         232           0.814                    25
##  8          8     326         258           0.791                    26
##  9          9     367         283           0.771                    25
## 10         10     408         307           0.752                    24
## # ℹ 90 more rows
## # ℹ 1 more variable: cum_conversions <int>
…
3.10 Cumulative
conversion table for 30th percentile

mx_curve_early <- mx_curve %>%
  filter(percentile <= 30) %>%
  select(percentile, n_total, n_converted, incremental_converted, cum_conversions)

mx_curve_early

## # A tibble: 30 × 5
##    percentile n_total n_converted incremental_converted cum_conversions
##         <dbl>   <dbl>       <int>                 <int>           <int>
##  1          1      40          38                    38              38
##  2          2      81          77                    39              77
##  3          3     122         112                    35             112
##  4          4     163         146                    34             146
##  5          5     204         177                    31             177
##  6          6     244         207                    30             207
##  7          7     285         232                    25             232
##  8          8     326         258                    26             258
##  9          9     367         283                    25             283
## 10         10     408         307                    24             307
## # ℹ 20 more rows

3.11 Cumulative
conversion table for 100th percentile

mx_curve_detailed %>% 
  filter(percentile == 100)

## # A tibble: 4,081 × 6
##    percentile conversion_rate progressed .pred_yes .pred_no mx_prob
##         <dbl>           <dbl> <fct>          <dbl>    <dbl>   <dbl>
##  1        100           0.130 yes            0.767    0.233   0.767
##  2        100           0.130 yes            0.745    0.255   0.745
##  3        100           0.130 yes            0.743    0.257   0.743
##  4        100           0.130 yes            0.739    0.261   0.739
##  5        100           0.130 yes            0.727    0.273   0.727
##  6        100           0.130 yes            0.724    0.276   0.724
##  7        100           0.130 yes            0.717    0.283   0.717
##  8        100           0.130 yes            0.713    0.287   0.713
##  9        100           0.130 yes            0.711    0.289   0.711
## 10        100           0.130 yes            0.701    0.299   0.701
## # ℹ 4,071 more rows
…
